﻿Log file open, 08/21/22 20:37:57
LogWindows: Failed to load 'aqProf.dll' (GetLastError=126)
LogWindows: File 'aqProf.dll' does not exist
LogProfilingDebugging: Loading WinPixEventRuntime.dll for PIX profiling (from ../../../Engine/Binaries/ThirdParty/Windows/WinPixEventRuntime/x64).
LogWindows: Failed to load 'VtuneApi.dll' (GetLastError=126)
LogWindows: File 'VtuneApi.dll' does not exist
LogWindows: Failed to load 'VtuneApi32e.dll' (GetLastError=126)
LogWindows: File 'VtuneApi32e.dll' does not exist
LogConsoleResponse: Display: Failed to find resolution value strings in scalability ini. Falling back to default.
LogConsoleResponse: Display: Failed to find resolution value strings in scalability ini. Falling back to default.
LogCore: Display: UnrealTraceServer: Unable to launch the trace store with '"../../../Engine//Binaries/Win64/UnrealTraceServer.exe" fork' (00000002)
LogCsvProfiler: Display: Metadata set : platform="Windows"
LogCsvProfiler: Display: Metadata set : config="Development"
LogCsvProfiler: Display: Metadata set : buildversion="++UE5+Release-5.0-CL-20979098"
LogCsvProfiler: Display: Metadata set : engineversion="5.0.3-20979098+++UE5+Release-5.0"
LogCsvProfiler: Display: Metadata set : commandline="" OpenXR_MRAD""
LogCsvProfiler: Display: Metadata set : os="Windows 10 (20H2) [10.0.19042.1889] "
LogCsvProfiler: Display: Metadata set : cpu="AuthenticAMD|AMD Ryzen 9 3900X 12-Core Processor"
LogCsvProfiler: Display: Metadata set : pgoenabled="0"
LogCsvProfiler: Display: Metadata set : loginid="ffebc5634a1dea54db1c44a4592bde93"
LogCsvProfiler: Display: Metadata set : llm="0"
LogIoDispatcher: Display: Reading toc: ../../../OpenXR_MRAD/Content/Paks/global.utoc
LogIoDispatcher: Display: Toc signature hash: 0000000000000000000000000000000000000000
LogIoDispatcher: Display: Mounting container '../../../OpenXR_MRAD/Content/Paks/global.utoc' in location slot 0
LogPakFile: Display: Initialized I/O dispatcher file backend. Mounted the global container: ../../../OpenXR_MRAD/Content/Paks/global.utoc
LogPakFile: Display: Found Pak file ../../../OpenXR_MRAD/Content/Paks/OpenXR_MRAD-Windows.pak attempting to mount.
LogPakFile: Display: Mounting pak file ../../../OpenXR_MRAD/Content/Paks/OpenXR_MRAD-Windows.pak.
LogIoDispatcher: Display: Reading toc: ../../../OpenXR_MRAD/Content/Paks/OpenXR_MRAD-Windows.utoc
LogIoDispatcher: Display: Toc signature hash: 0000000000000000000000000000000000000000
LogIoDispatcher: Display: Mounting container '../../../OpenXR_MRAD/Content/Paks/OpenXR_MRAD-Windows.utoc' in location slot 0
LogPakFile: Display: Mounted IoStore container "../../../OpenXR_MRAD/Content/Paks/OpenXR_MRAD-Windows.utoc"
LogPakFile: Display: Mounted Pak file '../../../OpenXR_MRAD/Content/Paks/OpenXR_MRAD-Windows.pak', mount point: '../../../'
LogPlatformFile: Not using cached read wrapper
LogStats: Stats thread started at 0.188123
LogICUInternationalization: ICU TimeZone Detection - Raw Offset: +1:00, Platform Override: ''
LogInit: Session CrashGUID >====================================================
         Session CrashGUID >   UECC-Windows-59D6F7684254BCF0EF499BA5E5A9821B
         Session CrashGUID >====================================================
LogPluginManager: Mounting Project plugin SetUpMixedReality
LogPluginManager: Mounting Engine plugin Paper2D
LogPluginManager: Mounting Engine plugin AISupport
LogPluginManager: Mounting Engine plugin EnvironmentQueryEditor
LogPluginManager: Mounting Engine plugin ControlRig
LogPluginManager: Mounting Engine plugin ControlRigSpline
LogPluginManager: Mounting Engine plugin IKRig
LogPluginManager: Mounting Engine plugin LiveLink
LogPluginManager: Mounting Engine plugin Bridge
LogPluginManager: Mounting Engine plugin CameraShakePreviewer
LogPluginManager: Mounting Engine plugin GameplayCameras
LogPluginManager: Mounting Engine plugin OodleNetwork
LogPluginManager: Mounting Engine plugin AnimationSharing
LogPluginManager: Mounting Engine plugin ConcertMain
LogPluginManager: Mounting Engine plugin ConcertSyncClient
LogPluginManager: Mounting Engine plugin ConcertSyncCore
LogPluginManager: Mounting Engine plugin PixWinPlugin
LogPluginManager: Mounting Engine plugin PluginUtils
LogPluginManager: Mounting Engine plugin UObjectPlugin
LogPluginManager: Mounting Engine plugin AssetManagerEditor
LogPluginManager: Mounting Engine plugin EditorScriptingUtilities
LogPluginManager: Mounting Engine plugin FacialAnimation
LogPluginManager: Mounting Engine plugin GeometryMode
LogPluginManager: Mounting Engine plugin SequencerAnimTools
LogPluginManager: Mounting Engine plugin SpeedTreeImporter
LogPluginManager: Mounting Engine plugin DatasmithContent
LogPluginManager: Mounting Engine plugin LidarPointCloud
LogPluginManager: Mounting Engine plugin VariantManagerContent
LogPluginManager: Mounting Engine plugin AutomationUtils
LogPluginManager: Mounting Engine plugin BackChannel
LogPluginManager: Mounting Engine plugin ChaosCloth
LogPluginManager: Mounting Engine plugin ChaosClothEditor
LogPluginManager: Mounting Engine plugin ChaosEditor
LogPluginManager: Mounting Engine plugin ChaosNiagara
LogPluginManager: Mounting Engine plugin ChaosSolverPlugin
LogPluginManager: Mounting Engine plugin CharacterAI
LogPluginManager: Mounting Engine plugin FullBodyIK
LogPluginManager: Mounting Engine plugin GeometryCollectionPlugin
LogPluginManager: Mounting Engine plugin OpenImageDenoise
LogPluginManager: Mounting Engine plugin PlatformCrypto
LogPluginManager: Mounting Engine plugin PythonScriptPlugin
LogPluginManager: Mounting Engine plugin Niagara
LogPluginManager: Mounting Engine plugin AlembicImporter
LogPluginManager: Mounting Engine plugin AvfMedia
LogPluginManager: Mounting Engine plugin ImgMedia
LogPluginManager: Mounting Engine plugin MediaCompositing
LogPluginManager: Mounting Engine plugin WebMMedia
LogPluginManager: Mounting Engine plugin WmfMedia
LogPluginManager: Mounting Engine plugin MeshPainting
LogPluginManager: Mounting Engine plugin TcpMessaging
LogPluginManager: Mounting Engine plugin UdpMessaging
LogPluginManager: Mounting Engine plugin ActorSequence
LogPluginManager: Mounting Engine plugin LevelSequenceEditor
LogPluginManager: Mounting Engine plugin MatineeToLevelSequence
LogPluginManager: Mounting Engine plugin SequencerScripting
LogPluginManager: Mounting Engine plugin TemplateSequence
LogPluginManager: Mounting Engine plugin OnlineServices
LogPluginManager: Mounting Engine plugin OnlineBase
LogPluginManager: Mounting Engine plugin OnlineSubsystem
LogPluginManager: Mounting Engine plugin OnlineSubsystemNull
LogPluginManager: Mounting Engine plugin OnlineSubsystemUtils
LogPluginManager: Mounting Engine plugin LauncherChunkInstaller
LogPluginManager: Mounting Engine plugin ActorLayerUtilities
LogPluginManager: Mounting Engine plugin AndroidFileServer
LogPluginManager: Mounting Engine plugin AndroidPermission
LogPluginManager: Mounting Engine plugin AppleImageUtils
LogPluginManager: Mounting Engine plugin ArchVisCharacter
LogPluginManager: Mounting Engine plugin AssetTags
LogPluginManager: Mounting Engine plugin AudioCapture
LogPluginManager: Mounting Engine plugin AudioSynesthesia
LogPluginManager: Mounting Engine plugin CableComponent
LogPluginManager: Mounting Engine plugin ChunkDownloader
LogPluginManager: Mounting Engine plugin CustomMeshComponent
LogPluginManager: Mounting Engine plugin SQLiteCore
LogPluginManager: Mounting Engine plugin ExampleDeviceProfileSelector
LogPluginManager: Mounting Engine plugin GeometryCache
LogPluginManager: Mounting Engine plugin GeometryProcessing
LogPluginManager: Mounting Engine plugin GooglePAD
LogPluginManager: Mounting Engine plugin LocationServicesBPLibrary
LogPluginManager: Mounting Engine plugin MobilePatchingUtils
LogPluginManager: Mounting Engine plugin OpenXR
LogPluginManager: Mounting Engine plugin OpenXREyeTracker
LogPluginManager: Mounting Engine plugin OpenXRHandTracking
LogPluginManager: Mounting Engine plugin ProceduralMeshComponent
LogPluginManager: Mounting Engine plugin PropertyAccessEditor
LogPluginManager: Mounting Engine plugin ResonanceAudio
LogPluginManager: Mounting Engine plugin RuntimePhysXCooking
LogPluginManager: Mounting Engine plugin SignificanceManager
LogPluginManager: Mounting Engine plugin SoundFields
LogPluginManager: Mounting Engine plugin Synthesis
LogPluginManager: Mounting Engine plugin WebMMoviePlayer
LogPluginManager: Mounting Engine plugin WindowsDeviceProfileSelector
LogPluginManager: Mounting Engine plugin WindowsMoviePlayer
LogPluginManager: Mounting Engine plugin Takes
LogPackageName: Display: FPackageName: Mount point added: '../../Plugins/SetUpMixedReality/Content/' mounted to '/SetUpMixedReality/'
LogPackageName: Display: FPackageName: Mount point added: '../../../Engine/Plugins/2D/Paper2D/Content/' mounted to '/Paper2D/'
LogPackageName: Display: FPackageName: Mount point added: '../../../Engine/Plugins/Animation/ControlRig/Content/' mounted to '/ControlRig/'
LogPackageName: Display: FPackageName: Mount point added: '../../../Engine/Plugins/Animation/ControlRigSpline/Content/' mounted to '/ControlRigSpline/'
LogPackageName: Display: FPackageName: Mount point added: '../../../Engine/Plugins/Animation/IKRig/Content/' mounted to '/IKRig/'
LogPackageName: Display: FPackageName: Mount point added: '../../../Engine/Plugins/Bridge/Content/' mounted to '/Bridge/'
LogPackageName: Display: FPackageName: Mount point added: '../../../Engine/Plugins/Developer/AnimationSharing/Content/' mounted to '/AnimationSharing/'
LogPackageName: Display: FPackageName: Mount point added: '../../../Engine/Plugins/Developer/Concert/ConcertSync/ConcertSyncClient/Content/' mounted to '/ConcertSyncClient/'
LogPackageName: Display: FPackageName: Mount point added: '../../../Engine/Plugins/Editor/GeometryMode/Content/' mounted to '/GeometryMode/'
LogPackageName: Display: FPackageName: Mount point added: '../../../Engine/Plugins/Editor/SpeedTreeImporter/Content/' mounted to '/SpeedTreeImporter/'
LogPackageName: Display: FPackageName: Mount point added: '../../../Engine/Plugins/Enterprise/DatasmithContent/Content/' mounted to '/DatasmithContent/'
LogPackageName: Display: FPackageName: Mount point added: '../../../Engine/Plugins/Enterprise/LidarPointCloud/Content/' mounted to '/LidarPointCloud/'
LogPackageName: Display: FPackageName: Mount point added: '../../../Engine/Plugins/Experimental/ChaosClothEditor/Content/' mounted to '/ChaosClothEditor/'
LogPackageName: Display: FPackageName: Mount point added: '../../../Engine/Plugins/Experimental/ChaosNiagara/Content/' mounted to '/ChaosNiagara/'
LogPackageName: Display: FPackageName: Mount point added: '../../../Engine/Plugins/Experimental/ChaosSolverPlugin/Content/' mounted to '/ChaosSolverPlugin/'
LogPackageName: Display: FPackageName: Mount point added: '../../../Engine/Plugins/Experimental/FullBodyIK/Content/' mounted to '/FullBodyIK/'
LogPackageName: Display: FPackageName: Mount point added: '../../../Engine/Plugins/Experimental/GeometryCollectionPlugin/Content/' mounted to '/GeometryCollectionPlugin/'
LogPackageName: Display: FPackageName: Mount point added: '../../../Engine/Plugins/Experimental/PythonScriptPlugin/Content/' mounted to '/PythonScriptPlugin/'
LogPackageName: Display: FPackageName: Mount point added: '../../../Engine/Plugins/FX/Niagara/Content/' mounted to '/Niagara/'
LogPackageName: Display: FPackageName: Mount point added: '../../../Engine/Plugins/Media/MediaCompositing/Content/' mounted to '/MediaCompositing/'
LogPackageName: Display: FPackageName: Mount point added: '../../../Engine/Plugins/MovieScene/SequencerScripting/Content/' mounted to '/SequencerScripting/'
LogPackageName: Display: FPackageName: Mount point added: '../../../Engine/Plugins/Runtime/AudioSynesthesia/Content/' mounted to '/AudioSynesthesia/'
LogPackageName: Display: FPackageName: Mount point added: '../../../Engine/Plugins/Runtime/GeometryProcessing/Content/' mounted to '/GeometryProcessing/'
LogPackageName: Display: FPackageName: Mount point added: '../../../Engine/Plugins/Runtime/OpenXR/Content/' mounted to '/OpenXR/'
LogPackageName: Display: FPackageName: Mount point added: '../../../Engine/Plugins/Runtime/OpenXREyeTracker/Content/' mounted to '/OpenXREyeTracker/'
LogPackageName: Display: FPackageName: Mount point added: '../../../Engine/Plugins/Runtime/OpenXRHandTracking/Content/' mounted to '/OpenXRHandTracking/'
LogPackageName: Display: FPackageName: Mount point added: '../../../Engine/Plugins/Runtime/ResonanceAudio/Content/' mounted to '/ResonanceAudio/'
LogPackageName: Display: FPackageName: Mount point added: '../../../Engine/Plugins/Runtime/Synthesis/Content/' mounted to '/Synthesis/'
LogPackageName: Display: FPackageName: Mount point added: '../../../Engine/Plugins/VirtualProduction/Takes/Content/' mounted to '/Takes/'
PixWinPlugin: PIX capture plugin failed to initialize! Check that the process is launched from PIX.
LogInit: Using libcurl 7.55.1-DEV
LogInit:  - built for x86_64-pc-win32
LogInit:  - supports SSL with OpenSSL/1.1.1
LogInit:  - supports HTTP deflate (compression) using libz 1.2.8
LogInit:  - other features:
LogInit:      CURL_VERSION_SSL
LogInit:      CURL_VERSION_LIBZ
LogInit:      CURL_VERSION_IPV6
LogInit:      CURL_VERSION_ASYNCHDNS
LogInit:      CURL_VERSION_LARGEFILE
LogInit:      CURL_VERSION_IDN
LogInit:  CurlRequestOptions (configurable via config and command line):
LogInit:  - bVerifyPeer = true  - Libcurl will verify peer certificate
LogInit:  - bUseHttpProxy = false  - Libcurl will NOT use HTTP proxy
LogInit:  - bDontReuseConnections = false  - Libcurl will reuse connections
LogInit:  - MaxHostConnections = 16  - Libcurl will limit the number of connections to a host
LogInit:  - LocalHostAddr = Default
LogInit:  - BufferSize = 65536
LogInit: WinSock: version 1.1 (2.2), MaxSocks=32767, MaxUdp=65467
LogOnline: OSS: Created online subsystem instance for: NULL
LogOnline: OSS: TryLoadSubsystemAndSetDefault: Loaded subsystem for module [NULL]
LogInit: Build: ++UE5+Release-5.0-CL-20979098
LogInit: Engine Version: 5.0.3-20979098+++UE5+Release-5.0
LogInit: Compatible Engine Version: 5.0.0-19505902+++UE5+Release-5.0
LogInit: Net CL: 19505902
LogInit: OS: Windows 10 (20H2) [10.0.19042.1889] (), CPU: AMD Ryzen 9 3900X 12-Core Processor            , GPU: NVIDIA GeForce RTX 3080
LogInit: Compiled (64-bit): Jul  7 2022 02:24:55
LogInit: Compiled with Visual C++: 19.29.30138.00
LogInit: Build Configuration: Development
LogInit: Branch Name: ++UE5+Release-5.0
LogInit: Command Line: 
LogInit: Base Directory: C:/Users/ruppelbt/BachelorProject/mixed-reality-attention-direction/Executable/Windows/OpenXR_MRAD/Binaries/Win64/
LogInit: Allocator: binned2
LogInit: Installed Engine Build: 0
LogDevObjectVersion: Number of dev versions registered: 36
LogDevObjectVersion:   Dev-ControlRig (A7820CFB-20A7-4359-8C54-2C149623CF50): 13
LogDevObjectVersion:   Dev-IKRig (F6DFBB78-BB50-A0E4-4018-B84D60CBAF23): 0
LogDevObjectVersion:   Dev-Blueprints (B0D832E4-1F89-4F0D-ACCF-7EB736FD4AA2): 10
LogDevObjectVersion:   Dev-Build (E1C64328-A22C-4D53-A36C-8E866417BD8C): 0
LogDevObjectVersion:   Dev-Core (375EC13C-06E4-48FB-B500-84F0262A717E): 4
LogDevObjectVersion:   Dev-Editor (E4B068ED-F494-42E9-A231-DA0B2E46BB41): 40
LogDevObjectVersion:   Dev-Framework (CFFC743F-43B0-4480-9391-14DF171D2073): 37
LogDevObjectVersion:   Dev-Mobile (B02B49B5-BB20-44E9-A304-32B752E40360): 3
LogDevObjectVersion:   Dev-Networking (A4E4105C-59A1-49B5-A7C5-40C4547EDFEE): 0
LogDevObjectVersion:   Dev-Online (39C831C9-5AE6-47DC-9A44-9C173E1C8E7C): 0
LogDevObjectVersion:   Dev-Physics (78F01B33-EBEA-4F98-B9B4-84EACCB95AA2): 20
LogDevObjectVersion:   Dev-Platform (6631380F-2D4D-43E0-8009-CF276956A95A): 0
LogDevObjectVersion:   Dev-Rendering (12F88B9F-8875-4AFC-A67C-D90C383ABD29): 45
LogDevObjectVersion:   Dev-Sequencer (7B5AE74C-D270-4C10-A958-57980B212A5A): 13
LogDevObjectVersion:   Dev-VR (D7296918-1DD6-4BDD-9DE2-64A83CC13884): 3
LogDevObjectVersion:   Dev-LoadTimes (C2A15278-BFE7-4AFE-6C17-90FF531DF755): 1
LogDevObjectVersion:   Private-Geometry (6EACA3D4-40EC-4CC1-B786-8BED09428FC5): 3
LogDevObjectVersion:   Dev-AnimPhys (29E575DD-E0A3-4627-9D10-D276232CDCEA): 17
LogDevObjectVersion:   Dev-Anim (AF43A65D-7FD3-4947-9873-3E8ED9C1BB05): 15
LogDevObjectVersion:   Dev-ReflectionCapture (6B266CEC-1EC7-4B8F-A30B-E4D90942FC07): 1
LogDevObjectVersion:   Dev-Automation (0DF73D61-A23F-47EA-B727-89E90C41499A): 1
LogDevObjectVersion:   FortniteMain (601D1886-AC64-4F84-AA16-D3DE0DEAC7D6): 59
LogDevObjectVersion:   FortniteRelease (E7086368-6B23-4C58-8439-1B7016265E91): 3
LogDevObjectVersion:   Dev-Enterprise (9DFFBCD6-494F-0158-E221-12823C92A888): 10
LogDevObjectVersion:   Dev-Niagara (F2AED0AC-9AFE-416F-8664-AA7FFA26D6FC): 1
LogDevObjectVersion:   Dev-Destruction (174F1F0B-B4C6-45A5-B13F-2EE8D0FB917D): 10
LogDevObjectVersion:   Dev-Physics-Ext (35F94A83-E258-406C-A318-09F59610247C): 41
LogDevObjectVersion:   Dev-PhysicsMaterial-Chaos (B68FC16E-8B1B-42E2-B453-215C058844FE): 1
LogDevObjectVersion:   Dev-CineCamera (B2E18506-4273-CFC2-A54E-F4BB758BBA07): 1
LogDevObjectVersion:   Dev-VirtualProduction (64F58936-FD1B-42BA-BA96-7289D5D0FA4E): 1
LogDevObjectVersion:   UE5-Main (697DD581-E64F-41AB-AA4A-51ECBEB7B628): 59
LogDevObjectVersion:   UE5-Release (D89B5E42-24BD-4D46-8412-ACA8DF641779): 36
LogDevObjectVersion:   UE5-PrivateFrosty (59DA5D52-1232-4948-B878-597870B8E98B): 8
LogDevObjectVersion:   UE5-Dev-Cooker (26075A32-730F-4708-88E9-8C32F1599D05): 0
LogDevObjectVersion:   Dev-MediaFramework (6F0ED827-A609-4895-9C91-998D90180EA4): 2
LogDevObjectVersion:   UE5-Dev-LWCRendering (30D58BE3-95EA-4282-A6E3-B159D8EBB06A): 1
LogLinker: AddRedirectList(../../../OpenXR_MRAD/Saved/Config/Windows/LidarPointCloud.ini) has substring redirect /PointCloudRuntime, these are very slow and should be resolved as soon as possible!
LogInit: Presizing for max 2097152 objects, including 1 objects not considered by GC, pre-allocating 0 bytes for permanent pool.
LogStreaming: Display: AsyncLoading2 - Created: Event Driven Loader: true, Async Loading Thread: true, Async Post Load: true
LogStreaming: Display: AsyncLoading2 - Initialized
LogInit: Object subsystem initialized
LogConfig: CVar [[con.DebugLateDefault:1]] deferred - dummy variable created
LogConfig: CVar [[con.DebugLateCheat:1]] deferred - dummy variable created
LogConfig: CVar [[r.DetectAndWarnOfBadDrivers:0]] deferred - dummy variable created
LogConfig: CVar [[LogNamedEventFilters:Frame *]] deferred - dummy variable created
LogConfig: CVar [[framepro.ScopeMinTimeMicroseconds:10]] deferred - dummy variable created
LogConfig: CVar [[QualityLevelMapping:high]] deferred - dummy variable created
[2022.08.21-18.37.57:629][  0]LogConfig: CVar [[con.DebugLateDefault:1]] deferred - dummy variable created
[2022.08.21-18.37.57:629][  0]LogConfig: CVar [[con.DebugLateCheat:1]] deferred - dummy variable created
[2022.08.21-18.37.57:629][  0]LogConfig: CVar [[r.DetectAndWarnOfBadDrivers:0]] deferred - dummy variable created
[2022.08.21-18.37.57:629][  0]LogConfig: CVar [[LogNamedEventFilters:Frame *]] deferred - dummy variable created
[2022.08.21-18.37.57:629][  0]LogConfig: CVar [[framepro.ScopeMinTimeMicroseconds:10]] deferred - dummy variable created
[2022.08.21-18.37.57:629][  0]LogConfig: CVar [[QualityLevelMapping:high]] deferred - dummy variable created
[2022.08.21-18.37.57:629][  0]LogConfig: Applying CVar settings from Section [/Script/Engine.RendererSettings] File [Engine]
[2022.08.21-18.37.57:629][  0]LogConfig: CVar [[VisualizeCalibrationColorMaterialPath:None]] deferred - dummy variable created
[2022.08.21-18.37.57:629][  0]LogConfig: CVar [[VisualizeCalibrationGrayscaleMaterialPath:None]] deferred - dummy variable created
[2022.08.21-18.37.57:629][  0]LogConfig: CVar [[MaxSkinBones:(Default=65536,PerPlatform=(("Mobile", 256)))]] deferred - dummy variable created
[2022.08.21-18.37.57:629][  0]LogConfig: CVar [[WorkingColorSpaceChoice:sRGB]] deferred - dummy variable created
[2022.08.21-18.37.57:629][  0]LogConfig: CVar [[RedChromaticityCoordinate:(X=0.640000,Y=0.330000)]] deferred - dummy variable created
[2022.08.21-18.37.57:629][  0]LogConfig: CVar [[GreenChromaticityCoordinate:(X=0.300000,Y=0.600000)]] deferred - dummy variable created
[2022.08.21-18.37.57:629][  0]LogConfig: CVar [[BlueChromaticityCoordinate:(X=0.150000,Y=0.060000)]] deferred - dummy variable created
[2022.08.21-18.37.57:629][  0]LogConfig: CVar [[WhiteChromaticityCoordinate:(X=0.312700,Y=0.329000)]] deferred - dummy variable created
[2022.08.21-18.37.57:629][  0]LogConfig: CVar [[TranslucentSortAxis:(X=0.000000,Y=-1.000000,Z=0.000000)]] deferred - dummy variable created
[2022.08.21-18.37.57:629][  0]LogConfig: CVar [[bDefaultParticleCutouts:0]] deferred - dummy variable created
[2022.08.21-18.37.57:629][  0]LogConfig: CVar [[bStreamSkeletalMeshLODs:(Default=False,PerPlatform=())]] deferred - dummy variable created
[2022.08.21-18.37.57:629][  0]LogConfig: CVar [[bDiscardSkeletalMeshOptionalLODs:(Default=False,PerPlatform=())]] deferred - dummy variable created
[2022.08.21-18.37.57:629][  0]LogConfig: CVar [[VisualizeCalibrationCustomMaterialPath:None]] deferred - dummy variable created
[2022.08.21-18.37.57:629][  0]LogConfig: Applying CVar settings from Section [/Script/Engine.RendererOverrideSettings] File [Engine]
[2022.08.21-18.37.57:629][  0]LogConfig: Applying CVar settings from Section [/Script/Engine.StreamingSettings] File [Engine]
[2022.08.21-18.37.57:629][  0]LogConfig: CVar [[s.MaxPackageSummarySize:16384]] deferred - dummy variable created
[2022.08.21-18.37.57:629][  0]LogConfig: CVar [[FixedBootOrder:/Script/Engine/Default__SoundBase]] deferred - dummy variable created
[2022.08.21-18.37.57:629][  0]LogConfig: CVar [[FixedBootOrder:/Script/Engine/Default__MaterialInterface]] deferred - dummy variable created
[2022.08.21-18.37.57:629][  0]LogConfig: CVar [[FixedBootOrder:/Script/Engine/Default__DeviceProfileManager]] deferred - dummy variable created
[2022.08.21-18.37.57:629][  0]LogConfig: Applying CVar settings from Section [/Script/Engine.GarbageCollectionSettings] File [Engine]
[2022.08.21-18.37.57:629][  0]LogConfig: Applying CVar settings from Section [/Script/Engine.NetworkSettings] File [Engine]
[2022.08.21-18.37.57:629][  0]LogConfig: CVar [[NetworkEmulationProfiles:(ProfileName="Average",ToolTip="Simulates average internet conditions")]] deferred - dummy variable created
[2022.08.21-18.37.57:629][  0]LogConfig: CVar [[NetworkEmulationProfiles:(ProfileName="Bad",ToolTip="Simulates laggy internet conditions")]] deferred - dummy variable created
[2022.08.21-18.37.57:665][  0]LogConfig: Applying CVar settings from Section [ViewDistanceQuality@3] File [Scalability]
[2022.08.21-18.37.57:665][  0]LogConfig: Applying CVar settings from Section [AntiAliasingQuality@3] File [Scalability]
[2022.08.21-18.37.57:665][  0]LogConfig: Applying CVar settings from Section [ShadowQuality@3] File [Scalability]
[2022.08.21-18.37.57:665][  0]LogConfig: Applying CVar settings from Section [GlobalIlluminationQuality@3] File [Scalability]
[2022.08.21-18.37.57:665][  0]LogConfig: Applying CVar settings from Section [ReflectionQuality@3] File [Scalability]
[2022.08.21-18.37.57:665][  0]LogConfig: Applying CVar settings from Section [PostProcessQuality@3] File [Scalability]
[2022.08.21-18.37.57:665][  0]LogConfig: Applying CVar settings from Section [TextureQuality@3] File [Scalability]
[2022.08.21-18.37.57:665][  0]LogConsoleManager: Warning: Setting the console variable 'r.Streaming.PoolSize' with 'SetByScalability' was ignored as it is lower priority than the previous 'SetByProjectSetting'. Value remains '2000'
[2022.08.21-18.37.57:665][  0]LogConfig: Applying CVar settings from Section [EffectsQuality@3] File [Scalability]
[2022.08.21-18.37.57:665][  0]LogConfig: Applying CVar settings from Section [FoliageQuality@3] File [Scalability]
[2022.08.21-18.37.57:665][  0]LogConfig: Applying CVar settings from Section [ShadingQuality@3] File [Scalability]
[2022.08.21-18.37.57:665][  0]LogConfig: CVar [[r.HairStrands.Interpolation.UseSingleGuide:0]] deferred - dummy variable created
[2022.08.21-18.37.57:812][  0]LogD3D12RHI: Aftermath initialized
[2022.08.21-18.37.57:812][  0]LogD3D12RHI: Loading WinPixEventRuntime.dll for PIX profiling (from ../../../Engine/Binaries/ThirdParty/Windows/WinPixEventRuntime/x64).
[2022.08.21-18.37.57:834][  0]LogHMD: Optional extension XR_KHR_vulkan_enable is not available
[2022.08.21-18.37.57:834][  0]LogHMD: Optional extension XR_KHR_binding_modification is not available
[2022.08.21-18.37.57:834][  0]LogHMD: Optional extension XR_EXT_dpad_binding is not available
[2022.08.21-18.37.58:033][  0]LogHMD: Initialized OpenXR on Varjo OpenXR Runtime runtime version 3.6.1
[2022.08.21-18.37.58:331][  0]LogD3D12RHI: Found D3D12 adapter 0: NVIDIA GeForce RTX 3080 (Max supported Feature Level 12_1, shader model 6.6)
[2022.08.21-18.37.58:331][  0]LogD3D12RHI: Adapter has 10078MB of dedicated video memory, 0MB of dedicated system memory, and 16338MB of shared system memory, 1 output[s]
[2022.08.21-18.37.58:358][  0]LogD3D12RHI: Found D3D12 adapter 1: Microsoft Basic Render Driver (Max supported Feature Level 12_1, shader model 6.2)
[2022.08.21-18.37.58:358][  0]LogD3D12RHI: Adapter has 0MB of dedicated video memory, 0MB of dedicated system memory, and 16338MB of shared system memory, 0 output[s]
[2022.08.21-18.37.58:358][  0]LogD3D12RHI: Chosen D3D12 Adapter Id = 0
[2022.08.21-18.37.58:358][  0]LogInit: Selected Device Profile: [Windows]
[2022.08.21-18.37.58:358][  0]LogDeviceProfileManager: Applying CVar settings loaded from the selected device profile: [Windows]
[2022.08.21-18.37.58:358][  0]LogHAL: Display: Platform has ~ 32 GB [34264342528 / 34359738368 / 32], which maps to Largest [LargestMinGB=32, LargerMinGB=12, DefaultMinGB=8, SmallerMinGB=6, SmallestMinGB=0)
[2022.08.21-18.37.58:358][  0]LogDeviceProfileManager: Going up to parent DeviceProfile []
[2022.08.21-18.37.58:358][  0]LogConfig: Applying CVar settings from Section [Startup] File [../../../Engine/Config/ConsoleVariables.ini]
[2022.08.21-18.37.58:359][  0]LogConfig: Applying CVar settings from Section [ConsoleVariables] File [Engine]
[2022.08.21-18.37.58:359][  0]LogInit: Computer: KRATES
[2022.08.21-18.37.58:359][  0]LogInit: User: ruppelbt
[2022.08.21-18.37.58:359][  0]LogInit: CPU Page size=4096, Cores=12
[2022.08.21-18.37.58:359][  0]LogInit: High frequency timer resolution =10.000000 MHz
[2022.08.21-18.37.58:359][  0]LogMemory: Memory total: Physical=31.9GB (32GB approx)
[2022.08.21-18.37.58:359][  0]LogMemory: Platform Memory Stats for Windows
[2022.08.21-18.37.58:359][  0]LogMemory: Process Physical Memory: 183.16 MB used, 192.62 MB peak
[2022.08.21-18.37.58:359][  0]LogMemory: Process Virtual Memory: 160.33 MB used, 160.33 MB peak
[2022.08.21-18.37.58:359][  0]LogMemory: Physical Memory: 20871.91 MB used,  11805.11 MB free, 32677.02 MB total
[2022.08.21-18.37.58:359][  0]LogMemory: Virtual Memory: 40761.40 MB used,  8410.96 MB free, 49172.36 MB total
[2022.08.21-18.37.58:359][  0]LogCsvProfiler: Display: Metadata set : extradevelopmentmemorymb="0"
[2022.08.21-18.38.00:187][  0]LogWindows: WindowsPlatformFeatures enabled
[2022.08.21-18.38.00:187][  0]LogInit: Physics initialised using underlying interface: Chaos
[2022.08.21-18.38.00:188][  0]LogInit: Using OS detected language (en-US).
[2022.08.21-18.38.00:188][  0]LogInit: Using OS detected locale (en-DE).
[2022.08.21-18.38.00:188][  0]LogTextLocalizationManager: No specific localization for 'en-US' exists, so 'en' will be used for the language.
[2022.08.21-18.38.00:268][  0]LogWindowsTextInputMethodSystem: Available input methods:
[2022.08.21-18.38.00:268][  0]LogWindowsTextInputMethodSystem:   - English (Germany) - (Keyboard).
[2022.08.21-18.38.00:268][  0]LogWindowsTextInputMethodSystem:   - English (United States) - (Keyboard).
[2022.08.21-18.38.00:268][  0]LogWindowsTextInputMethodSystem:   - English (American Samoa) - (Keyboard).
[2022.08.21-18.38.00:268][  0]LogWindowsTextInputMethodSystem: Activated input method: English (Germany) - (Keyboard).
[2022.08.21-18.38.00:329][  0]LogSlate: New Slate User Created.  User Index 0, Is Virtual User: 0
[2022.08.21-18.38.00:329][  0]LogSlate: Slate User Registered.  User Index 0, Is Virtual User: 0
[2022.08.21-18.38.00:383][  0]LogD3D12RHI: InitD3DDevice: -D3DDebug = off -D3D12GPUValidation = off
[2022.08.21-18.38.00:401][  0]LogD3D12RHI: [Aftermath] Aftermath crash dumping enabled
[2022.08.21-18.38.00:401][  0]LogD3D12RHI: Emitting draw events for PIX profiling.
[2022.08.21-18.38.00:684][  0]LogD3D12RHI: [Aftermath] Aftermath enabled and primed
[2022.08.21-18.38.00:684][  0]LogD3D12RHI: [Aftermath] Aftermath resource tracking enabled
[2022.08.21-18.38.00:684][  0]LogD3D12RHI: ID3D12Device1 is supported.
[2022.08.21-18.38.00:684][  0]LogD3D12RHI: ID3D12Device2 is supported.
[2022.08.21-18.38.00:684][  0]LogD3D12RHI: ID3D12Device3 is supported.
[2022.08.21-18.38.00:684][  0]LogD3D12RHI: ID3D12Device4 is supported.
[2022.08.21-18.38.00:684][  0]LogD3D12RHI: ID3D12Device5 is supported.
[2022.08.21-18.38.00:684][  0]LogD3D12RHI: ID3D12Device6 is supported.
[2022.08.21-18.38.00:684][  0]LogD3D12RHI: ID3D12Device7 is supported.
[2022.08.21-18.38.00:684][  0]LogD3D12RHI: D3D12 ray tracing tier 1.0 is supported.
[2022.08.21-18.38.00:684][  0]LogD3D12RHI: D3D12 ray tracing tier 1.1 is supported.
[2022.08.21-18.38.00:684][  0]LogD3D12RHI: Mesh shader tier 1.0 is supported
[2022.08.21-18.38.00:684][  0]LogD3D12RHI: AtomicInt64OnTypedResource is supported
[2022.08.21-18.38.00:684][  0]LogD3D12RHI: AtomicInt64OnGroupShared is supported
[2022.08.21-18.38.00:684][  0]LogD3D12RHI: AtomicInt64OnDescriptorHeapResource is supported
[2022.08.21-18.38.00:684][  0]LogD3D12RHI: Shader Model 6.6 atomic64 is supported
[2022.08.21-18.38.00:790][  0]LogD3D12RHI: [GPUBreadCrumb] Successfully setup breadcrumb resource for 3D Queue 0
[2022.08.21-18.38.00:811][  0]LogD3D12RHI: [GPUBreadCrumb] Successfully setup breadcrumb resource for Copy Queue 0
[2022.08.21-18.38.00:848][  0]LogD3D12RHI: [GPUBreadCrumb] Successfully setup breadcrumb resource for Compute Queue 0
[2022.08.21-18.38.00:911][  0]LogD3D12RHI: Display: Not using pipeline state disk cache per r.D3D12.PSO.DiskCache=0
[2022.08.21-18.38.00:911][  0]LogD3D12RHI: Display: Not using driver-optimized pipeline state disk cache per r.D3D12.PSO.DriverOptimizedDiskCache=0
[2022.08.21-18.38.00:913][  0]LogD3D12RHI:     GPU DeviceId: 0x2206 (for the marketing name, search the web for "GPU Device Id")
[2022.08.21-18.38.00:913][  0]LogWindows: Attached monitors:
[2022.08.21-18.38.00:913][  0]LogWindows:     resolution: 2560x1440, work area: (0, 0) -> (2560, 1400), device: '\\.\DISPLAY1' [PRIMARY]
[2022.08.21-18.38.00:913][  0]LogWindows: Found 1 attached monitors.
[2022.08.21-18.38.00:913][  0]LogWindows: EnumDisplayDevices:
[2022.08.21-18.38.00:913][  0]LogWindows:    0. 'NVIDIA GeForce RTX 3080' (P:1 D:1), name: '\\.\DISPLAY1'
[2022.08.21-18.38.00:914][  0]LogWindows:    1. 'NVIDIA GeForce RTX 3080' (P:0 D:0), name: '\\.\DISPLAY2'
[2022.08.21-18.38.00:914][  0]LogWindows:    2. 'NVIDIA GeForce RTX 3080' (P:0 D:0), name: '\\.\DISPLAY3'
[2022.08.21-18.38.00:914][  0]LogWindows:    3. 'NVIDIA GeForce RTX 3080' (P:0 D:0), name: '\\.\DISPLAY4'
[2022.08.21-18.38.00:914][  0]LogWindows: DebugString: FoundDriverCount:4 
[2022.08.21-18.38.00:914][  0]LogD3D12RHI:     Adapter Name: NVIDIA GeForce RTX 3080
[2022.08.21-18.38.00:915][  0]LogD3D12RHI:   Driver Version: 516.94 (internal:31.0.15.1694, unified:516.94)
[2022.08.21-18.38.00:915][  0]LogD3D12RHI:      Driver Date: 7-21-2022
[2022.08.21-18.38.00:915][  0]LogRHI: Texture pool is 5865 MB (70% of 8379 MB)
[2022.08.21-18.38.00:915][  0]LogD3D12RHI: Async texture creation enabled
[2022.08.21-18.38.00:915][  0]LogD3D12RHI: RHI has support for 64 bit atomics
[2022.08.21-18.38.00:955][  0]LogRHI: GeForceNow SDK initialized: 0
[2022.08.21-18.38.00:967][  0]LogRendererCore: Ray tracing is disabled. Reason: r.RayTracing=0.
[2022.08.21-18.38.00:968][  0]LogShaderLibrary: Display: Using IoDispatcher for shader code library Global. Total 3667 unique shaders.
[2022.08.21-18.38.00:969][  0]LogShaderLibrary: Display: Cooked Context: Using Shared Shader Library Global
[2022.08.21-18.38.00:969][  0]LogShaderLibrary: Display: Logical shader library 'Global' has been created, components 1
[2022.08.21-18.38.00:971][  0]LogTemp: Display: Clearing the OS Cache
[2022.08.21-18.38.00:996][  0]LogSlate: Using FreeType 2.10.0
[2022.08.21-18.38.00:996][  0]LogSlate: SlateFontServices - WITH_FREETYPE: 1, WITH_HARFBUZZ: 1
[2022.08.21-18.38.01:132][  0]LogShaderLibrary: Display: Using IoDispatcher for shader code library OpenXR_MRAD. Total 1462 unique shaders.
[2022.08.21-18.38.01:132][  0]LogShaderLibrary: Display: Cooked Context: Using Shared Shader Library OpenXR_MRAD
[2022.08.21-18.38.01:132][  0]LogShaderLibrary: Display: Logical shader library 'OpenXR_MRAD' has been created, components 1
[2022.08.21-18.38.01:132][  0]LogRHI: Display: Opened pipeline cache after state change and enqueued 0 of 0 tasks for precompile.
[2022.08.21-18.38.01:132][  0]LogRHI: Base name for record PSOs is ../../../OpenXR_MRAD/Saved/CollectedPSOs/++UE5+Release-5.0-CL-20979098-OpenXR_MRAD_PCD3D_SM5_6B8AC0064EAE255E461E35A1C3A276ED.rec.upipelinecache
[2022.08.21-18.38.01:134][  0]LogRHI: Could not open FPipelineCacheFile: ../../../OpenXR_MRAD/Content/PipelineCaches/Windows/OpenXR_MRAD_PCD3D_SM5.upipelinecache
[2022.08.21-18.38.01:134][  0]LogRHI: Display: Failed to open default shader pipeline cache for OpenXR_MRAD using shader platform 0.
[2022.08.21-18.38.01:135][  0]LogInit: Using OS detected language (en-US).
[2022.08.21-18.38.01:135][  0]LogInit: Using OS detected locale (en-DE).
[2022.08.21-18.38.01:135][  0]LogTextLocalizationManager: No localization for 'en-US' exists, so 'en' will be used for the language.
[2022.08.21-18.38.01:135][  0]LogTextLocalizationManager: No localization for 'en-DE' exists, so 'en' will be used for the locale.
[2022.08.21-18.38.01:135][  0]LogSlate: FontCache flush requested. Reason: Culture for localization was changed
[2022.08.21-18.38.01:135][  0]LogSlate: FontCache flush requested. Reason: Culture for localization was changed
[2022.08.21-18.38.01:138][  0]LogAssetRegistry: FAssetRegistry took 0.0020 seconds to start up
[2022.08.21-18.38.01:305][  0]LogStreaming: Display: FlushAsyncLoading: 1 QueuedPackages, 0 AsyncPackages
[2022.08.21-18.38.01:307][  0]LogInit: Selected Device Profile: [Windows]
[2022.08.21-18.38.01:307][  0]LogDeviceProfileManager: Active device profile: [000001ED5E5C8380][000001ED3B839D90 50] Windows
[2022.08.21-18.38.01:307][  0]LogDeviceProfileManager: Profiles: [000001ED5E5C8380][000001ED3B839D90 50] Windows, 
[2022.08.21-18.38.01:307][  0]LogCsvProfiler: Display: Metadata set : deviceprofile="Windows"
[2022.08.21-18.38.01:359][  0]LogNetVersion: OpenXR_MRAD 1.0.0, NetCL: 19505902, EngineNetVer: 23, GameNetVer: 0 (Checksum: 1400863811)
[2022.08.21-18.38.01:398][  0]LogAudioCaptureCore: Display: No Audio Capture implementations found. Audio input will be silent.
[2022.08.21-18.38.01:398][  0]LogAudioCaptureCore: Display: No Audio Capture implementations found. Audio input will be silent.
[2022.08.21-18.38.01:408][  0]LogPackageLocalizationCache: Processed 31 localized package path(s) for 1 prioritized culture(s) in 0.000104 seconds
[2022.08.21-18.38.01:426][  0]LogMoviePlayer: Initializing movie player
[2022.08.21-18.38.01:428][  0]LogNiagaraDebuggerClient: Niagara Debugger Client Initialized | Session: 9D214359471F412301CF5E8A6A56163F | Instance: EC56FF1D4284D83FF2F1ADB763DF76AF (KRATES-22628).
[2022.08.21-18.38.01:430][  0]LogAndroidPermission: UAndroidPermissionCallbackProxy::GetInstance
[2022.08.21-18.38.01:442][  0]LogUObjectArray: 17913 objects as part of root set at end of initial load.
[2022.08.21-18.38.01:442][  0]LogUObjectArray: 18 objects are not in the root set, but can never be destroyed because they are in the DisregardForGC set.
[2022.08.21-18.38.01:442][  0]LogUObjectAllocator: 3918592 out of 0 bytes used by permanent object pool.
[2022.08.21-18.38.01:442][  0]LogUObjectArray: CloseDisregardForGC: 17913/17913 objects in disregard for GC pool
[2022.08.21-18.38.01:443][  0]LogStreaming: Display: AsyncLoading2 - Thread Started: true, IsInitialLoad: false
[2022.08.21-18.38.01:445][  0]LogEngine: Initializing Engine...
[2022.08.21-18.38.01:455][  0]LogStats: UGameplayTagsManager::InitializeManager -  0.000 s
[2022.08.21-18.38.01:473][  0]LogStreaming: Display: AsyncLoading2 - InitialLoad Finalized: 17588 script object entries in 483.18 KB
[2022.08.21-18.38.01:473][  0]LogInit: Initializing FReadOnlyCVARCache
[2022.08.21-18.38.01:473][  0]LogAudio: Display: Initializing Audio Device Manager...
[2022.08.21-18.38.01:473][  0]LogAudio: Display: Loading Default Audio Settings Objects...
[2022.08.21-18.38.01:473][  0]LogAudio: Display: No default SoundConcurrencyObject specified (or failed to load).
[2022.08.21-18.38.01:474][  0]LogAudio: Display: Registering Engine Module Parameter Interfaces...
[2022.08.21-18.38.01:474][  0]LogAudio: Display: Audio Device Manager Initialized
[2022.08.21-18.38.01:474][  0]LogAudio: Display: Creating Audio Device:                 Id: 1, Scope: Shared, Realtime: True
[2022.08.21-18.38.01:474][  0]LogAudioMixer: Display: Audio Mixer Platform Settings:
[2022.08.21-18.38.01:474][  0]LogAudioMixer: Display: 	Sample Rate:						  48000
[2022.08.21-18.38.01:474][  0]LogAudioMixer: Display: 	Callback Buffer Frame Size Requested: 1024
[2022.08.21-18.38.01:474][  0]LogAudioMixer: Display: 	Callback Buffer Frame Size To Use:	  1024
[2022.08.21-18.38.01:474][  0]LogAudioMixer: Display: 	Number of buffers to queue:			  1
[2022.08.21-18.38.01:474][  0]LogAudioMixer: Display: 	Max Channels (voices):				  0
[2022.08.21-18.38.01:474][  0]LogAudioMixer: Display: 	Number of Async Source Workers:		  4
[2022.08.21-18.38.01:474][  0]LogAudio: Display: AudioDevice MaxSources: 32
[2022.08.21-18.38.01:474][  0]LogAudio: Display: Audio Spatialization Plugin: Resonance Audio is external send: 1
[2022.08.21-18.38.01:474][  0]LogAudio: Display: Audio Reverb Plugin: Resonance Audio
[2022.08.21-18.38.01:474][  0]LogAudio: Display: Audio Occlusion Plugin: None (built-in).
[2022.08.21-18.38.01:493][  0]LogAudioDebug: Display: Lib vorbis DLL was dynamically loaded.
[2022.08.21-18.38.01:493][  0]LogAudioMixer: Display: Initializing audio mixer using platform API: 'XAudio2'
[2022.08.21-18.38.06:559][  0]LogAudioMixer: Display: Using Audio Hardware Device Speakers (Realtek(R) Audio)
[2022.08.21-18.38.06:560][  0]LogAudioMixer: Display: Initializing Sound Submixes...
[2022.08.21-18.38.06:561][  0]LogAudioMixer: Display: Creating Master Submix 'MasterSubmixDefault'
[2022.08.21-18.38.06:561][  0]LogAudioMixer: Display: Creating Master Submix 'MasterReverbSubmixDefault'
[2022.08.21-18.38.06:563][  0]LogStreaming: Warning: LoadPackage: SkipPackage: /ResonanceAudio/ResonanceSubmixDefault (0x30C8723EB0E7B477) - The package to load does not exist on disk or in the loader
[2022.08.21-18.38.06:563][  0]LogUObjectGlobals: Warning: Failed to find object 'Object /ResonanceAudio/ResonanceSubmixDefault.ResonanceSubmixDefault'
[2022.08.21-18.38.06:564][  0]LogResonanceAudio: Error: Failed to load Resonance Reverb Submix from object path '/ResonanceAudio/ResonanceSubmixDefault.ResonanceSubmixDefault' in ResonanceSettings. Creating 'Resonance Reverb Submix' as stub.
[2022.08.21-18.38.06:564][  0]LogResonanceAudio: Error: Failed to find Resonance UResonanceAudioReverbPluginPreset on default reverb submix. Creating stub '/ResonanceAudio/ResonanceSubmixDefault.ResonanceSubmixDefault'.
[2022.08.21-18.38.06:564][  0]LogAudioMixer: FMixerPlatformXAudio2::StartAudioStream() called. InstanceID=1
[2022.08.21-18.38.06:564][  0]LogAudioMixer: Display: Output buffers initialized: Frames=1024, Channels=8, Samples=8192, InstanceID=1
[2022.08.21-18.38.06:565][  0]LogAudioMixer: Display: Starting AudioMixerPlatformInterface::RunInternal(), InstanceID=1
[2022.08.21-18.38.06:565][  0]LogAudioMixer: Display: FMixerPlatformXAudio2::SubmitBuffer() called for the first time. InstanceID=1
[2022.08.21-18.38.06:565][  0]LogInit: FAudioDevice initialized.
[2022.08.21-18.38.06:566][  0]LogNetVersion: Set ProjectVersion to 1.0.0.0. Version Checksum will be recalculated on next use.
[2022.08.21-18.38.06:566][  0]LogInit: Texture streaming: Enabled
[2022.08.21-18.38.06:566][  0]LogCsvProfiler: Display: Metadata set : largeworldcoordinates="1"
[2022.08.21-18.38.06:567][  0]LogChaos: FPhysicsSolverBase::AsyncDt:-1.000000
[2022.08.21-18.38.06:569][  0]LogAudio: Display: Audio Device (ID: 1) registered with world 'Untitled'.
[2022.08.21-18.38.06:570][  0]LogSlate: Updating window title bar state: overlay mode, drag disabled, window buttons hidden, title bar hidden
[2022.08.21-18.38.06:570][  0]LogInit: Display: Game Engine Initialized.
[2022.08.21-18.38.12:664][  0]LogInit: Display: Starting Game.
[2022.08.21-18.38.12:664][  0]LogNet: Browse: /Game/Maps/Empty?Name=Player
[2022.08.21-18.38.12:664][  0]LogLoad: LoadMap: /Game/Maps/Empty?Name=Player
[2022.08.21-18.38.12:664][  0]LogWorld: BeginTearingDown for /Temp/Untitled_0
[2022.08.21-18.38.12:665][  0]LogWorld: UWorld::CleanupWorld for Untitled, bSessionEnded=true, bCleanupResources=true
[2022.08.21-18.38.12:665][  0]LogSlate: InvalidateAllWidgets triggered.  All widgets were invalidated
[2022.08.21-18.38.12:667][  0]LogStreaming: Display: 0.010 ms (0.004+0.006) ms for processing 28/28 objects in NotifyUnreachableObjects( Queued=0, Async=0). Removed 0/2 (84->84 tracked) packages and 0/26 (93->93 tracked) public exports.
[2022.08.21-18.38.12:668][  0]LogAudio: Display: Audio Device unregistered from world 'None'.
[2022.08.21-18.38.12:670][  0]LogUObjectHash: Compacting FUObjectHashTables data took   0.77ms
[2022.08.21-18.38.12:709][  0]LogAudio: Display: Audio Device (ID: 1) registered with world 'Empty'.
[2022.08.21-18.38.12:709][  0]LogChaos: FPhysicsSolverBase::AsyncDt:-1.000000
[2022.08.21-18.38.12:710][  0]LogAIModule: Creating AISystem for world Empty
[2022.08.21-18.38.12:711][  0]LogLoad: Game class is 'VRGameMode_C'
[2022.08.21-18.38.12:712][  0]LogWorld: Bringing World /Game/Maps/Empty.Empty up for play (max tick rate 0) at 2022.08.21-20.38.12
[2022.08.21-18.38.12:713][  0]LogWorld: Bringing up level for play took: 0.001339
[2022.08.21-18.38.12:714][  0]LogSpawn: Warning: SpawnActor failed because no class was specified
[2022.08.21-18.38.12:716][  0]LogSlate: New Slate User Created.  User Index 8, Is Virtual User: 1
[2022.08.21-18.38.12:716][  0]LogSlate: Slate User Registered.  User Index 8, Is Virtual User: 1
[2022.08.21-18.38.12:718][  0]vr.PixelDensity = "1"
[2022.08.21-18.38.12:718][  0]LogLoad: Took 0.054253 seconds to LoadMap(/Game/Maps/Empty)
[2022.08.21-18.38.12:719][  0]LogViewport: Scene viewport resized to 2560x1440, mode WindowedFullscreen.
[2022.08.21-18.38.12:894][  0]LogResonanceAudio: Display: Resonance Audio Listener is initialized
[2022.08.21-18.38.12:896][  0]LogSlate: Took 0.001012 seconds to synchronously load lazily loaded font '../../../Engine/Content/Slate/Fonts/Roboto-Regular.ttf' (155K)
[2022.08.21-18.38.12:897][  0]LogRenderer: Warning: Resizing VR buffer to 8192 by 2048
[2022.08.21-18.38.12:897][  0]LogRHI: Display: ShaderPipelineCache: Paused Batching. 1
[2022.08.21-18.38.12:897][  0]LogPakFile: AllPaks IndexSizes: DirectoryHashSize=146260, PathHashSize=16, EntriesSize=19104, TotalSize=165380
[2022.08.21-18.38.12:897][  0]LogRHI: Display: ShaderPipelineCache: Resumed Batching. 0
[2022.08.21-18.38.12:897][  0]LogRHI: Display: ShaderPipelineCache: Batching Resumed.
[2022.08.21-18.38.12:897][  0]LogInit: Display: Engine is initialized. Leaving FEngineLoop::Init()
[2022.08.21-18.38.12:897][  0]LogLoad: (Engine Initialization) Total time: 15.85 seconds
[2022.08.21-18.38.13:132][  0]LogContentStreaming: Texture pool size now 2000 MB
[2022.08.21-18.38.13:133][  0]LogSlate: InvalidateAllWidgets triggered.  All widgets were invalidated
[2022.08.21-18.38.13:134][  0]LogRenderer: Warning: Resizing VR buffer to 6528 by 1824
[2022.08.21-18.38.13:206][  0]LogSlate: Slate font cache was flushed
[2022.08.21-18.38.13:213][  1]LogSlate: Took 0.000549 seconds to synchronously load lazily loaded font '../../../Engine/Content/Slate/Fonts/Roboto-Regular.ttf' (155K)
[2022.08.21-18.38.13:243][  2]LogSlate: Took 0.001337 seconds to synchronously load lazily loaded font '../../../Engine/Content/EngineFonts/Faces/RobotoBold.ufont' (160K)
[2022.08.21-18.38.21:564][625]LogProfilingDebugging: Allocated a 1024 x 1024 texture for HMD canvas layer
[2022.08.21-18.38.31:728][232]LogTemp: Warning: ObjectDetection Out: Initializing application..
[2022.08.21-18.38.31:729][232]LogTemp: Warning: ObjectDetection Out: 
[2022.08.21-18.38.31:745][233]LogTemp: Warning: ObjectDetection Out: Instrument Shared Memory Segment created
[2022.08.21-18.38.31:746][233]LogTemp: Warning: ObjectDetection Out: 
[2022.08.21-18.38.31:765][234]LogTemp: Warning: ObjectDetection Out: Running application..
[2022.08.21-18.38.31:765][234]LogTemp: Warning: ObjectDetection Out: 
[2022.08.21-18.38.31:766][234]LogTemp: Warning: ObjectDetection Out: Instrument Semaphores opened
[2022.08.21-18.38.31:766][234]LogTemp: Warning: ObjectDetection Out: 
[2022.08.21-18.38.31:766][234]LogTemp: Warning: ObjectDetection Out: VST Semaphores opened
[2022.08.21-18.38.31:766][234]LogTemp: Warning: ObjectDetection Out: 
[2022.08.21-18.38.31:785][235]LogTemp: Warning: ObjectDetection Out: Instrument Shared Memory Segment opened
[2022.08.21-18.38.31:785][235]LogTemp: Warning: ObjectDetection Out: 
[2022.08.21-18.38.31:785][235]LogTemp: Warning: ObjectDetection Out: VST Shared Memory Segment opened
[2022.08.21-18.38.31:785][235]LogTemp: Warning: ObjectDetection Out: 
[2022.08.21-18.38.31:973][248]LogTemp: Warning: ObjectDetection Out: Found script file.
[2022.08.21-18.38.31:973][248]LogTemp: Warning: ObjectDetection Out: 
[2022.08.21-18.38.41:584][952]LogTemp: Display: Instrument Semaphores opened
[2022.08.21-18.38.41:596][953]LogTemp: Display: Instrument Shared Memory Segment opened
[2022.08.21-18.38.46:102][220]Closing by request
[2022.08.21-18.38.46:102][220]LogWindows: FPlatformMisc::RequestExit(0)
[2022.08.21-18.38.46:102][220]LogWindows: FPlatformMisc::RequestExitWithStatus(0, 0)
[2022.08.21-18.38.46:102][220]LogCore: Engine exit requested (reason: Win RequestExit)
[2022.08.21-18.38.46:105][221]LogCore: Engine exit requested (reason: EngineExit() was called; note: exit was already requested)
[2022.08.21-18.38.46:105][221]LogInit: Display: PreExit Game.
[2022.08.21-18.38.46:231][221]LogWorld: BeginTearingDown for /Game/Maps/Empty
[2022.08.21-18.38.46:233][221]LogWorld: UWorld::CleanupWorld for Empty, bSessionEnded=true, bCleanupResources=true
[2022.08.21-18.38.46:233][221]LogSlate: InvalidateAllWidgets triggered.  All widgets were invalidated
[2022.08.21-18.38.46:465][221]LogAudio: Display: Beginning Audio Device Manager Shutdown (Module: AudioMixerXAudio2)...
[2022.08.21-18.38.46:465][221]LogAudio: Display: Destroying 1 Remaining Audio Device(s)...
[2022.08.21-18.38.46:465][221]LogAudio: Display: Audio Device unregistered from world 'Empty'.
[2022.08.21-18.38.46:466][221]LogResonanceAudio: Display: Resonance Audio Listener is shutdown
[2022.08.21-18.38.46:466][221]LogAudioMixer: FMixerPlatformXAudio2::StopAudioStream() called. InstanceID=1
[2022.08.21-18.38.46:467][221]LogAudioMixer: FMixerPlatformXAudio2::StopAudioStream() called. InstanceID=1
[2022.08.21-18.38.46:527][221]LogAudio: Display: Audio Device Manager Shutdown
[2022.08.21-18.38.46:527][221]LogSlate: Request Window 'OpenXR_MRAD (64-bit Development PCD3D_SM5) ' being destroyed
[2022.08.21-18.38.46:536][221]LogWindows: Windows GetLastError: The operation completed successfully. (0)
[2022.08.21-18.39.47:551][221]LogWindows: Error: Error reentered: Assertion failed: IsInGameThread() || IsInGarbageCollectorThread() [File:D:\build\++UE5\Sync\Engine\Source\Runtime\CoreUObject\Public\UObject\StrongObjectPtr.h] [Line: 32] 


[2022.08.21-18.39.47:551][221]LogWindows: FPlatformMisc::RequestExit(1)
[2022.08.21-18.39.47:551][221]LogWindows: FPlatformMisc::RequestExitWithStatus(1, 3)
[2022.08.21-18.39.47:551][221]LogCore: Engine exit requested (reason: Win RequestExit; note: exit was already requested)
[2022.08.21-18.39.47:561][221]Log file closed, 08/21/22 20:39:47
